Aulas FIP606 - Aula 10
…
Visualização

 sensib2 <- sensib %>% 
  group_by(code, dose) %>% 
  summarise(mean_germination = mean(germination))

`summarise()` has grouped output by 'code'. You can override using the
`.groups` argument.

sensib2 %>%  
  mutate(dose2=dose)

# A tibble: 120 × 4
# Groups:   code [20]
   code   dose mean_germination dose2
   <chr> <dbl>            <dbl> <dbl>
 1 152    0                48.5  0   
 2 152    0.05             42    0.05
 3 152    0.5              15.5  0.5 
 4 152    1                 0.5  1   
 5 152    5                 0    5   
 6 152   10                 0   10   
 7 153    0                49.5  0   
 8 153    0.05             44.5  0.05
 9 153    0.5               9    0.5 
10 153    1                 8.5  1   
# ℹ 110 more rows
…
