Aulas FIP606 - Aula4
…
   0,  0.08, 0.001, 0.001,
   7,  0.13,  0.01, 0.001,
  14,  0.78,  0.09,  0.01,
  21,  0.92,  0.25,  0.05,
  28,  0.99,   0.8,  0.18,
  35, 0.995,  0.98,  0.34,
  42, 0.999,  0.99,  0.48,
  49, 0.999, 0.999,  0.74
  ) 
pepper %>% 
  pivot_longer(2:4,
               names_to = "epidemic",
               values_to = "inc")

# A tibble: 24 × 3
       t epidemic   inc
   <dbl> <chr>    <dbl>
 1     0 1        0.08 
 2     0 2        0.001
 3     0 3        0.001
 4     7 1        0.13 
 5     7 2        0.01 
 6     7 3        0.001
 7    14 1        0.78 
 8    14 2        0.09 
 9    14 3        0.01 
10    21 1        0.92 
# ℹ 14 more rows
…
